^C:\USERS\LOUIS\SOURCE\REPOS\D4C CSGO\D4C CSGO\RENDERE.CPP
/c /ZI /JMC /nologo /W3 /WX- /diagnostics:column /sdl /Od /Oy- /D WIN32 /D _DEBUG /D D4CCSGO_EXPORTS /D _WINDOWS /D _USRDLL /D _WINDLL /D _MBCS /Gm- /EHsc /RTC1 /MDd /GS /fp:precise /permissive- /Zc:wchar_t /Zc:forScope /Zc:inline /Fo"DEBUG\\" /Fd"DEBUG\VC142.PDB" /Gd /TP /analyze- /FC C:\USERS\LOUIS\SOURCE\REPOS\D4C CSGO\D4C CSGO\RENDERE.CPP
^C:\USERS\LOUIS\SOURCE\REPOS\D4C CSGO\D4C CSGO\CMENU.CPP
/c /ZI /JMC /nologo /W3 /WX- /diagnostics:column /sdl /Od /Oy- /D WIN32 /D _DEBUG /D D4CCSGO_EXPORTS /D _WINDOWS /D _USRDLL /D _WINDLL /D _MBCS /Gm- /EHsc /RTC1 /MDd /GS /fp:precise /permissive- /Zc:wchar_t /Zc:forScope /Zc:inline /Fo"DEBUG\\" /Fd"DEBUG\VC142.PDB" /Gd /TP /analyze- /FC C:\USERS\LOUIS\SOURCE\REPOS\D4C CSGO\D4C CSGO\CMENU.CPP
^C:\USERS\LOUIS\SOURCE\REPOS\D4C CSGO\D4C CSGO\MENU.CPP
/c /ZI /JMC /nologo /W3 /WX- /diagnostics:column /sdl /Od /Oy- /D WIN32 /D _DEBUG /D D4CCSGO_EXPORTS /D _WINDOWS /D _USRDLL /D _WINDLL /D _MBCS /Gm- /EHsc /RTC1 /MDd /GS /fp:precise /permissive- /Zc:wchar_t /Zc:forScope /Zc:inline /Fo"DEBUG\\" /Fd"DEBUG\VC142.PDB" /Gd /TP /analyze- /FC C:\USERS\LOUIS\SOURCE\REPOS\D4C CSGO\D4C CSGO\MENU.CPP
^C:\USERS\LOUIS\SOURCE\REPOS\D4C CSGO\D4C CSGO\DLLMAIN.CPP
/c /ZI /JMC /nologo /W3 /WX- /diagnostics:column /sdl /Od /Oy- /D WIN32 /D _DEBUG /D D4CCSGO_EXPORTS /D _WINDOWS /D _USRDLL /D _WINDLL /D _MBCS /Gm- /EHsc /RTC1 /MDd /GS /fp:precise /permissive- /Zc:wchar_t /Zc:forScope /Zc:inline /Fo"DEBUG\\" /Fd"DEBUG\VC142.PDB" /Gd /TP /analyze- /FC C:\USERS\LOUIS\SOURCE\REPOS\D4C CSGO\D4C CSGO\DLLMAIN.CPP
^C:\USERS\LOUIS\SOURCE\REPOS\D4C CSGO\D4C CSGO\MEMORY.CPP
/c /ZI /JMC /nologo /W3 /WX- /diagnostics:column /sdl /Od /Oy- /D WIN32 /D _DEBUG /D D4CCSGO_EXPORTS /D _WINDOWS /D _USRDLL /D _WINDLL /D _MBCS /Gm- /EHsc /RTC1 /MDd /GS /fp:precise /permissive- /Zc:wchar_t /Zc:forScope /Zc:inline /Fo"DEBUG\\" /Fd"DEBUG\VC142.PDB" /Gd /TP /analyze- /FC C:\USERS\LOUIS\SOURCE\REPOS\D4C CSGO\D4C CSGO\MEMORY.CPP
^C:\USERS\LOUIS\SOURCE\REPOS\D4C CSGO\D4C CSGO\W2S.CPP
/c /ZI /JMC /nologo /W3 /WX- /diagnostics:column /sdl /Od /Oy- /D WIN32 /D _DEBUG /D D4CCSGO_EXPORTS /D _WINDOWS /D _USRDLL /D _WINDLL /D _MBCS /Gm- /EHsc /RTC1 /MDd /GS /fp:precise /permissive- /Zc:wchar_t /Zc:forScope /Zc:inline /Fo"DEBUG\\" /Fd"DEBUG\VC142.PDB" /Gd /TP /analyze- /FC C:\USERS\LOUIS\SOURCE\REPOS\D4C CSGO\D4C CSGO\W2S.CPP
